{
    "key": "group_545d1302ae129",
    "title": "Chapter Settings",
    "fields": [
        {
            "key": "field_55e7442419cc3",
            "label": "Header Display",
            "name": "",
            "type": "tab",
            "instructions": "",
            "required": 0,
            "conditional_logic": 0,
            "wrapper": {
                "width": "",
                "class": "",
                "id": ""
            },
            "placement": "top",
            "endpoint": 0
        },
        {
            "key": "field_545a83096d4b5",
            "label": "Header Display",
            "name": "header_display",
            "type": "radio",
            "instructions": "Select the header display of the chapter.",
            "required": 0,
            "conditional_logic": 0,
            "wrapper": {
                "width": 50,
                "class": "",
                "id": ""
            },
            "choices": {
                "image": "Image",
                "video": "Video",
                "text": "Text Only"
            },
            "allow_null": 0,
            "other_choice": 0,
            "save_other_choice": 0,
            "default_value": "image",
            "layout": "horizontal"
        },
        {
            "key": "field_560571aa4b1fb",
            "label": "Full Screen",
            "name": "header_fullscreen_tf",
            "type": "true_false",
            "instructions": "Check to display the header image or video fullscreen. If unchecked, it will take up about half the page.",
            "required": 0,
            "conditional_logic": [
                [
                    {
                        "field": "field_545a83096d4b5",
                        "operator": "!=",
                        "value": "text"
                    }
                ]
            ],
            "wrapper": {
                "width": 25,
                "class": "",
                "id": ""
            },
            "message": "",
            "default_value": 0
        },
        {
            "key": "field_5758783d78a82",
            "label": "Logo Overlay",
            "name": "header_overlay_tf",
            "type": "true_false",
            "instructions": "Check to upload a logo to display on top of the header image or video.",
            "required": 0,
            "conditional_logic": [
                [
                    {
                        "field": "field_545a83096d4b5",
                        "operator": "!=",
                        "value": "text"
                    }
                ]
            ],
            "wrapper": {
                "width": 25,
                "class": "",
                "id": ""
            },
            "message": "",
            "default_value": 0
        },
        {
            "key": "field_545a8498b0f4c",
            "label": "Image - Desktop (1200x800)",
            "name": "header_image_desktop",
            "type": "image",
            "instructions": "The header image for large devices.",
            "required": 0,
            "conditional_logic": [
                [
                    {
                        "field": "field_545a83096d4b5",
                        "operator": "==",
                        "value": "image"
                    }
                ]
            ],
            "wrapper": {
                "width": 33,
                "class": "",
                "id": ""
            },
            "return_format": "url",
            "preview_size": "thumbnail",
            "library": "all",
            "min_width": "",
            "min_height": "",
            "min_size": "",
            "max_width": "",
            "max_height": "",
            "max_size": "",
            "mime_types": ""
        },
        {
            "key": "field_558ade731439e",
            "label": "Image - Tablet (900x600)",
            "name": "header_image_tablet",
            "type": "image",
            "instructions": "The image to appear on tablet devices. Leave blank to use desktop image.",
            "required": 0,
            "conditional_logic": [
                [
                    {
                        "field": "field_545a83096d4b5",
                        "operator": "==",
                        "value": "image"
                    }
                ]
            ],
            "wrapper": {
                "width": 33,
                "class": "",
                "id": ""
            },
            "return_format": "url",
            "preview_size": "thumbnail",
            "library": "all",
            "min_width": "",
            "min_height": "",
            "min_size": "",
            "max_width": "",
            "max_height": "",
            "max_size": "",
            "mime_types": ""
        },
        {
            "key": "field_558ade2a1439d",
            "label": "Image - Mobile (700x500)",
            "name": "header_image_mobile",
            "type": "image",
            "instructions": "Header image to appear on small screens. Leave blank if the desktop image suffices.",
            "required": 0,
            "conditional_logic": [
                [
                    {
                        "field": "field_545a83096d4b5",
                        "operator": "==",
                        "value": "image"
                    }
                ]
            ],
            "wrapper": {
                "width": 33,
                "class": "",
                "id": ""
            },
            "return_format": "url",
            "preview_size": "thumbnail",
            "library": "all",
            "min_width": "",
            "min_height": "",
            "min_size": "",
            "max_width": "",
            "max_height": "",
            "max_size": "",
            "mime_types": ""
        },
        {
            "key": "field_55e744b7d4879",
            "label": "Ambient Video (mp4)",
            "name": "header_video_mp4",
            "type": "file",
            "instructions": "Upload a video. This will display as an ambient video on the homepage.",
            "required": 0,
            "conditional_logic": [
                [
                    {
                        "field": "field_545a83096d4b5",
                        "operator": "==",
                        "value": "video"
                    }
                ]
            ],
            "wrapper": {
                "width": 25,
                "class": "",
                "id": ""
            },
            "return_format": "url",
            "library": "all",
            "min_size": "",
            "max_size": "",
            "mime_types": ""
        },
        {
            "key": "field_55e75c41af99a",
            "label": "Ambient Video (webm)",
            "name": "header_video_webm",
            "type": "file",
            "instructions": "Upload a video. This will display as an ambient video on the homepage.",
            "required": 0,
            "conditional_logic": [
                [
                    {
                        "field": "field_545a83096d4b5",
                        "operator": "==",
                        "value": "video"
                    }
                ]
            ],
            "wrapper": {
                "width": 25,
                "class": "",
                "id": ""
            },
            "return_format": "url",
            "library": "all",
            "min_size": "",
            "max_size": "",
            "mime_types": ""
        },
        {
            "key": "field_55e747363a734",
            "label": "Placeholder Image (1200 x 800)",
            "name": "header_placeholder_image",
            "type": "image",
            "instructions": "Upload an image to display while the video is loading. ",
            "required": 0,
            "conditional_logic": [
                [
                    {
                        "field": "field_545a83096d4b5",
                        "operator": "==",
                        "value": "video"
                    }
                ]
            ],
            "wrapper": {
                "width": 25,
                "class": "",
                "id": ""
            },
            "return_format": "url",
            "preview_size": "thumbnail",
            "library": "all",
            "min_width": "",
            "min_height": "",
            "min_size": "",
            "max_width": "",
            "max_height": "",
            "max_size": "",
            "mime_types": ""
        },
        {
            "key": "field_5785366c367d6",
            "label": "Gif for Mobile",
            "name": "header_gif",
            "type": "image",
            "instructions": "Optionally select a .gif file to display on mobile devices.",
            "required": 0,
            "conditional_logic": 0,
            "wrapper": {
                "width": 25,
                "class": "",
                "id": ""
            },
            "return_format": "id",
            "preview_size": "thumbnail",
            "library": "all",
            "min_width": "",
            "min_height": "",
            "min_size": "",
            "max_width": "",
            "max_height": "",
            "max_size": "",
            "mime_types": ""
        },
        {
            "key": "field_57584b159ffc5",
            "label": "Logo Overlay",
            "name": "",
            "type": "message",
            "instructions": "",
            "required": 0,
            "conditional_logic": [
                [
                    {
                        "field": "field_5758783d78a82",
                        "operator": "==",
                        "value": "1"
                    }
                ]
            ],
            "wrapper": {
                "width": "",
                "class": "",
                "id": ""
            },
            "message": "If you would like to show a logo <strong>instead<\/strong> of the default Chapter title and tagline, add it here. Both text fields are optional, and the content will display over the image or video.",
            "new_lines": "wpautop",
            "esc_html": 0
        },
        {
            "key": "field_57584ab3bdfb6",
            "label": "Overlay Alignment",
            "name": "header_overlay_alignment",
            "type": "radio",
            "instructions": "A sentence to display below the logo overlay.",
            "required": 0,
            "conditional_logic": [
                [
                    {
                        "field": "field_5758783d78a82",
                        "operator": "==",
                        "value": "1"
                    }
                ]
            ],
            "wrapper": {
                "width": 50,
                "class": "",
                "id": ""
            },
            "choices": {
                "right": "Right",
                "center": "Center",
                "left": "Left"
            },
            "allow_null": 0,
            "other_choice": 0,
            "save_other_choice": 0,
            "default_value": "center",
            "layout": "horizontal"
        },
        {
            "key": "field_56057defb84d5",
            "label": "Logo Image",
            "name": "header_logo_overlay",
            "type": "image",
            "instructions": "Display a transparent, centered logo over the header image or video. An SVG file is recommended.",
            "required": 0,
            "conditional_logic": [
                [
                    {
                        "field": "field_5758783d78a82",
                        "operator": "==",
                        "value": "1"
                    }
                ]
            ],
            "wrapper": {
                "width": 50,
                "class": "",
                "id": ""
            },
            "return_format": "url",
            "preview_size": "thumbnail",
            "library": "all",
            "min_width": "",
            "min_height": "",
            "min_size": "",
            "max_width": "",
            "max_height": "",
            "max_size": "",
            "mime_types": ""
        },
        {
            "key": "field_560590ab03b0c",
            "label": "Overlay Subhead",
            "name": "header_overlay_subhead",
            "type": "textarea",
            "instructions": "A sentence to display below the logo overlay. Tweet length.",
            "required": 0,
            "conditional_logic": [
                [
                    {
                        "field": "field_5758783d78a82",
                        "operator": "==",
                        "value": "1"
                    }
                ]
            ],
            "wrapper": {
                "width": 50,
                "class": "",
                "id": ""
            },
            "default_value": "",
            "placeholder": "",
            "maxlength": "",
            "rows": 4,
            "new_lines": "wpautop",
            "readonly": 0,
            "disabled": 0
        },
        {
            "key": "field_575849c88f3dc",
            "label": "Overlay Credits",
            "name": "header_overlay_credits",
            "type": "textarea",
            "instructions": "Credits to display along with the logo. These will display as smaller text, and can be separated with new lines.",
            "required": 0,
            "conditional_logic": [
                [
                    {
                        "field": "field_5758783d78a82",
                        "operator": "==",
                        "value": "1"
                    }
                ]
            ],
            "wrapper": {
                "width": 50,
                "class": "",
                "id": ""
            },
            "default_value": "",
            "placeholder": "",
            "maxlength": "",
            "rows": 4,
            "new_lines": "br",
            "readonly": 0,
            "disabled": 0
        },
        {
            "key": "field_575dae81d8b4b",
            "label": "Animate Overlay",
            "name": "animation",
            "type": "select",
            "instructions": "Select an animation for displaying the logo overlay.",
            "required": 0,
            "conditional_logic": [
                [
                    {
                        "field": "field_5758783d78a82",
                        "operator": "==",
                        "value": "1"
                    }
                ]
            ],
            "wrapper": {
                "width": 33,
                "class": "",
                "id": ""
            },
            "choices": {
                "fadeIn": "Fade In",
                "fadeOut": "Fade Out",
                "fadeInDown": "Fade In (Down)",
                "fadeInRight": "Fade In (Right)",
                "fadeInLeft": "Fade In (Left)",
                "bounceInDown": "Bounce In (Down)"
            },
            "default_value": [],
            "allow_null": 1,
            "multiple": 0,
            "ui": 0,
            "ajax": 0,
            "placeholder": "",
            "disabled": 0,
            "readonly": 0
        },
        {
            "key": "field_575877a8f0f07",
            "label": "Watch Button Vimeo ID (Optional)",
            "name": "header_watch_btn_vimeo_id",
            "type": "text",
            "instructions": "If there is a Watch Button, add the Vimeo ID of the video to be loaded e.g. 169320650. This can be found in any URL or embed code for the video.",
            "required": 0,
            "conditional_logic": [
                [
                    {
                        "field": "field_5758783d78a82",
                        "operator": "==",
                        "value": "1"
                    }
                ]
            ],
            "wrapper": {
                "width": 66,
                "class": "",
                "id": ""
            },
            "default_value": "",
            "placeholder": "",
            "prepend": "",
            "append": "",
            "maxlength": "",
            "readonly": 0,
            "disabled": 0
        },
        {
            "key": "field_55e746c2dc58f",
            "label": "Top Article Content",
            "name": "top_article_content",
            "type": "tab",
            "instructions": "",
            "required": 0,
            "conditional_logic": 0,
            "wrapper": {
                "width": "",
                "class": "",
                "id": ""
            },
            "placement": "top",
            "endpoint": 0
        },
        {
            "key": "field_558add6512d17",
            "label": "Header Byline",
            "name": "header_byline",
            "type": "text",
            "instructions": "Author of this chapter.",
            "required": 0,
            "conditional_logic": 0,
            "wrapper": {
                "width": "",
                "class": "",
                "id": ""
            },
            "default_value": "",
            "placeholder": "",
            "prepend": "",
            "append": "",
            "maxlength": "",
            "readonly": 0,
            "disabled": 0
        },
        {
            "key": "field_545a8366b7ae4",
            "label": "Summary",
            "name": "header_summary",
            "type": "wysiwyg",
            "instructions": "A short paragraph summarizing the page content. This will display below the page title. Optional.",
            "required": 0,
            "conditional_logic": 0,
            "wrapper": {
                "width": "",
                "class": "wysiwg-short",
                "id": ""
            },
            "default_value": "",
            "tabs": "all",
            "toolbar": "links_only",
            "media_upload": 0
        },
        {
            "key": "field_5605771fa8bd8",
            "label": "Hide Info",
            "name": "header_hide_info",
            "type": "checkbox",
            "instructions": "Select components of the header to hide.",
            "required": 0,
            "conditional_logic": 0,
            "wrapper": {
                "width": "",
                "class": "",
                "id": ""
            },
            "choices": {
                "title": "Title",
                "byline": "Byline",
                "summary": "Summary"
            },
            "default_value": [],
            "layout": "horizontal",
            "toggle": 0
        },
        {
            "key": "field_55dccdef46232",
            "label": "Twitter Message",
            "name": "twitter_message",
            "type": "text",
            "instructions": "A message to be included in the share Tweet.",
            "required": 0,
            "conditional_logic": 0,
            "wrapper": {
                "width": "",
                "class": "",
                "id": ""
            },
            "default_value": "",
            "placeholder": "",
            "prepend": "",
            "append": "",
            "maxlength": "",
            "readonly": 0,
            "disabled": 0
        },
        {
            "key": "field_55e7443519cc4",
            "label": "Chapter Style",
            "name": "",
            "type": "tab",
            "instructions": "",
            "required": 0,
            "conditional_logic": 0,
            "wrapper": {
                "width": "",
                "class": "",
                "id": ""
            },
            "placement": "top",
            "endpoint": 0
        },
        {
            "key": "field_55e73fef85f46",
            "label": "Typekit Kit ID",
            "name": "typekit_kit_id",
            "type": "text",
            "instructions": "Create a new Typekit Kit for this chapter. Following these <a href=\"http:\/\/help.typekit.com\/customer\/portal\/articles\/6780-adding-fonts-to-your-website\" target=\"blank\">instructions<\/a>, find the kit ID and paste it here. It will look something like <code>afl4hgo<\/code>. ",
            "required": 0,
            "conditional_logic": 0,
            "wrapper": {
                "width": 33,
                "class": "",
                "id": ""
            },
            "default_value": "",
            "placeholder": "",
            "prepend": "",
            "append": "",
            "maxlength": "",
            "readonly": 0,
            "disabled": 0
        },
        {
            "key": "field_55e740da85f47",
            "label": "Heading Font",
            "name": "heading_font",
            "type": "text",
            "instructions": "Reference the \"Using fonts in CSS\" section and paste the font name here. Something like <code>proxima-nova<\/code>. You should only need one font style for headings.",
            "required": 0,
            "conditional_logic": 0,
            "wrapper": {
                "width": 33,
                "class": "",
                "id": ""
            },
            "default_value": "",
            "placeholder": "",
            "prepend": "",
            "append": "",
            "maxlength": "",
            "readonly": 0,
            "disabled": 0
        },
        {
            "key": "field_55e7417b85f48",
            "label": "Body Font",
            "name": "body_font",
            "type": "text",
            "instructions": "The font to be used for the paragraph and body text. Follow same instructions as above, though you will want to select \"italics\" and \"bold\" as well as \"regular\" for the font styles.",
            "required": 0,
            "conditional_logic": 0,
            "wrapper": {
                "width": 33,
                "class": "",
                "id": ""
            },
            "default_value": "",
            "placeholder": "",
            "prepend": "",
            "append": "",
            "maxlength": "",
            "readonly": 0,
            "disabled": 0
        },
        {
            "key": "field_55e742203972e",
            "label": "Custom CSS",
            "name": "custom_css",
            "type": "textarea",
            "instructions": "Add custom CSS here, ideally no more than 5 or 10 selectors.",
            "required": 0,
            "conditional_logic": 0,
            "wrapper": {
                "width": "",
                "class": "code_field",
                "id": ""
            },
            "default_value": "",
            "placeholder": "",
            "maxlength": "",
            "rows": 14,
            "new_lines": "",
            "readonly": 0,
            "disabled": 0
        },
        {
            "key": "field_55ef0634b25dd",
            "label": "Slider Video",
            "name": "",
            "type": "tab",
            "instructions": "",
            "required": 0,
            "conditional_logic": 0,
            "wrapper": {
                "width": "",
                "class": "",
                "id": ""
            },
            "placement": "top",
            "endpoint": 0
        },
        {
            "key": "field_55ef06a8b25e1",
            "label": "About",
            "name": "",
            "type": "message",
            "instructions": "",
            "required": 0,
            "conditional_logic": 0,
            "wrapper": {
                "width": "",
                "class": "",
                "id": ""
            },
            "message": "If a cover video is uploaded, it will be displayed in the homepage slider. If left blank, the Featured Image will display in the slider.",
            "esc_html": 0,
            "new_lines": "wpautop"
        },
        {
            "key": "field_55ef0646b25de",
            "label": "Cover Video (mp4)",
            "name": "cover_video_mp4",
            "type": "file",
            "instructions": "Upload a video. This will display as an ambient video on the homepage.",
            "required": 0,
            "conditional_logic": 0,
            "wrapper": {
                "width": 33,
                "class": "",
                "id": ""
            },
            "return_format": "url",
            "library": "all",
            "min_size": "",
            "max_size": "",
            "mime_types": ""
        },
        {
            "key": "field_55ef0674b25df",
            "label": "Cover Video (webm)",
            "name": "cover_video_webm",
            "type": "file",
            "instructions": "Upload a video. This will display as an ambient video on the homepage.",
            "required": 0,
            "conditional_logic": 0,
            "wrapper": {
                "width": 33,
                "class": "",
                "id": ""
            },
            "return_format": "url",
            "library": "all",
            "min_size": "",
            "max_size": "",
            "mime_types": ""
        },
        {
            "key": "field_55ef0689b25e0",
            "label": "Cover Video Placeholder (1200 x 800)",
            "name": "cover_video_placeholder_image",
            "type": "image",
            "instructions": "Upload an image to display while the video is loading. ",
            "required": 0,
            "conditional_logic": 0,
            "wrapper": {
                "width": 33,
                "class": "",
                "id": ""
            },
            "return_format": "url",
            "preview_size": "thumbnail",
            "library": "all",
            "min_width": "",
            "min_height": "",
            "min_size": "",
            "max_width": "",
            "max_height": "",
            "max_size": "",
            "mime_types": ""
        },
        {
            "key": "field_57583ed2b71f3",
            "label": "Top Ad",
            "name": "",
            "type": "tab",
            "instructions": "",
            "required": 0,
            "conditional_logic": 0,
            "wrapper": {
                "width": "",
                "class": "",
                "id": ""
            },
            "placement": "top",
            "endpoint": 0
        },
        {
            "key": "field_57583ee4b71f4",
            "label": "Ad ID",
            "name": "ad_id",
            "type": "text",
            "instructions": "The number after the last hyphen should be unique to each ad, including the ad blocks below. <strong style=\"color:red;\">Each ID must be different than the others, including Ad Blocks below.<\/strong> Example: <code>div-gpt-ad-1234567891234-0<\/code>. \r\n\r\nUsually the last number, 0 in this case, will be what is different.",
            "required": 0,
            "conditional_logic": 0,
            "wrapper": {
                "width": 50,
                "class": "",
                "id": ""
            },
            "default_value": "",
            "placeholder": "",
            "prepend": "",
            "append": "",
            "maxlength": "",
            "readonly": 0,
            "disabled": 0
        },
        {
            "key": "field_575dfd0832231",
            "label": "Width",
            "name": "ad_size_w",
            "type": "text",
            "instructions": "Default is 250.",
            "required": 0,
            "conditional_logic": 0,
            "wrapper": {
                "width": 25,
                "class": "",
                "id": ""
            },
            "default_value": 250,
            "placeholder": "",
            "prepend": "",
            "append": "",
            "maxlength": "",
            "readonly": 0,
            "disabled": 0
        },
        {
            "key": "field_575dfd2932232",
            "label": "Height",
            "name": "ad_size_h",
            "type": "text",
            "instructions": "Default is 70.",
            "required": 0,
            "conditional_logic": 0,
            "wrapper": {
                "width": 25,
                "class": "",
                "id": ""
            },
            "default_value": 70,
            "placeholder": "",
            "prepend": "",
            "append": "",
            "maxlength": "",
            "readonly": 0,
            "disabled": 0
        },
        {
            "key": "field_5785249c8fd81",
            "label": "Position",
            "name": "_copy",
            "type": "message",
            "instructions": "",
            "required": 0,
            "conditional_logic": 0,
            "wrapper": {
                "width": "",
                "class": "",
                "id": ""
            },
            "message": "",
            "new_lines": "wpautop",
            "esc_html": 0
        },
        {
            "key": "field_575e002138672",
            "label": "Ad Pos (Mobile\/Default)",
            "name": "ad_pos",
            "type": "text",
            "instructions": "The ad pos for mobile. If the others are blank, this one will be used.",
            "required": 0,
            "conditional_logic": 0,
            "wrapper": {
                "width": "33.3333",
                "class": "",
                "id": ""
            },
            "default_value": "",
            "placeholder": "",
            "prepend": "",
            "append": "",
            "maxlength": "",
            "readonly": 0,
            "disabled": 0
        },
        {
            "key": "field_578524538fd7e",
            "label": "Ad Pos (Tablet)",
            "name": "ad_pos_t",
            "type": "text",
            "instructions": "The ad pos for tablet.",
            "required": 0,
            "conditional_logic": 0,
            "wrapper": {
                "width": "33.3333",
                "class": "",
                "id": ""
            },
            "default_value": "",
            "placeholder": "",
            "prepend": "",
            "append": "",
            "maxlength": "",
            "readonly": 0,
            "disabled": 0
        },
        {
            "key": "field_5785247d8fd7f",
            "label": "Ad Pos (Desktop)",
            "name": "ad_pos_d",
            "type": "text",
            "instructions": "The ad pos for desktop.",
            "required": 0,
            "conditional_logic": 0,
            "wrapper": {
                "width": "33.3333",
                "class": "",
                "id": ""
            },
            "default_value": "",
            "placeholder": "",
            "prepend": "",
            "append": "",
            "maxlength": "",
            "readonly": 0,
            "disabled": 0
        },
        {
            "key": "field_57683cfa1fa6b",
            "label": "Slots",
            "name": "",
            "type": "message",
            "instructions": "",
            "required": 0,
            "conditional_logic": 0,
            "wrapper": {
                "width": "",
                "class": "",
                "id": ""
            },
            "message": "These should be the <strong>full URL<\/strong> e.g. \/7646\/tab_weather_us\/long_stories\/journey_of_the_hop<\/code> for tablet.",
            "new_lines": "wpautop",
            "esc_html": 0
        },
        {
            "key": "field_575e03bfe4ee3",
            "label": "Slot (Mobile)",
            "name": "ad_slot_m",
            "type": "text",
            "instructions": "",
            "required": 0,
            "conditional_logic": 0,
            "wrapper": {
                "width": "33.3333",
                "class": "",
                "id": ""
            },
            "default_value": "",
            "placeholder": "",
            "prepend": "",
            "append": "",
            "maxlength": "",
            "readonly": 0,
            "disabled": 0
        },
        {
            "key": "field_575e03ebe4ee4",
            "label": "Slot (Tablet)",
            "name": "ad_slot_t",
            "type": "text",
            "instructions": "",
            "required": 0,
            "conditional_logic": 0,
            "wrapper": {
                "width": "33.3333",
                "class": "",
                "id": ""
            },
            "default_value": "",
            "placeholder": "",
            "prepend": "",
            "append": "",
            "maxlength": "",
            "readonly": 0,
            "disabled": 0
        },
        {
            "key": "field_575e03fbe4ee5",
            "label": "Slot (Desktop)",
            "name": "ad_slot_d",
            "type": "text",
            "instructions": "",
            "required": 0,
            "conditional_logic": 0,
            "wrapper": {
                "width": "33.3333",
                "class": "",
                "id": ""
            },
            "default_value": "",
            "placeholder": "",
            "prepend": "",
            "append": "",
            "maxlength": "",
            "readonly": 0,
            "disabled": 0
        },
        {
            "key": "field_578524908fd80",
            "label": "Platform",
            "name": "_copy",
            "type": "message",
            "instructions": "",
            "required": 0,
            "conditional_logic": 0,
            "wrapper": {
                "width": "",
                "class": "",
                "id": ""
            },
            "message": "",
            "new_lines": "wpautop",
            "esc_html": 0
        },
        {
            "key": "field_57583f2fb71f6",
            "label": "Ad Platform (Desktop)",
            "name": "ad_plat_desktop",
            "type": "text",
            "instructions": "",
            "required": 0,
            "conditional_logic": 0,
            "wrapper": {
                "width": "33.3333",
                "class": "",
                "id": ""
            },
            "default_value": "",
            "placeholder": "",
            "prepend": "",
            "append": "",
            "maxlength": "",
            "readonly": 0,
            "disabled": 0
        },
        {
            "key": "field_57584395e2555",
            "label": "Ad Platform (Tablet)",
            "name": "ad_plat_tablet",
            "type": "text",
            "instructions": "",
            "required": 0,
            "conditional_logic": 0,
            "wrapper": {
                "width": "33.3333",
                "class": "",
                "id": ""
            },
            "default_value": "",
            "placeholder": "",
            "prepend": "",
            "append": "",
            "maxlength": "",
            "readonly": 0,
            "disabled": 0
        },
        {
            "key": "field_57583f18b71f5",
            "label": "Ad Platform (Mobile)",
            "name": "ad_plat_mobile",
            "type": "text",
            "instructions": "",
            "required": 0,
            "conditional_logic": 0,
            "wrapper": {
                "width": "33.33333",
                "class": "",
                "id": ""
            },
            "default_value": "",
            "placeholder": "",
            "prepend": "",
            "append": "",
            "maxlength": "",
            "readonly": 0,
            "disabled": 0
        }
    ],
    "location": [
        [
            {
                "param": "post_type",
                "operator": "==",
                "value": "chapter"
            }
        ],
        [
            {
                "param": "post_type",
                "operator": "==",
                "value": "page"
            }
        ]
    ],
    "menu_order": 0,
    "position": "acf_after_title",
    "style": "default",
    "label_placement": "top",
    "instruction_placement": "label",
    "hide_on_screen": [
        "the_content",
        "custom_fields",
        "discussion",
        "comments",
        "revisions",
        "author",
        "format",
        "send-trackbacks"
    ],
    "active": 1,
    "description": "",
    "modified": 1468431637
}
