<!-- Generator: Adobe Illustrator 19.1.0, SVG Export Plug-In  -->
<svg version="1.1"
   xmlns="http://www.w3.org/2000/svg" xmlns:xlink="http://www.w3.org/1999/xlink" xmlns:a="http://ns.adobe.com/AdobeSVGViewerExtensions/3.0/"
   x="0px" y="0px" width="74.1px" height="49.6px" viewBox="0 0 74.1 49.6" enable-background="new 0 0 74.1 49.6"
   xml:space="preserve">
<defs>
</defs>
<path d="M48.8,26.1L48.8,26.1L28.6,36.8c-0.1,0.1-0.2,0.1-0.4,0.2l0,0v0c-0.2,0.1-0.3,0.1-0.5,0.1
  c-0.9,0-1.5-0.7-1.5-1.5V14c0-0.9,0.7-1.5,1.5-1.5c0.2,0,0.5,0.1,0.7,0.2l20.3,10.9c0.4,0.3,0.7,0.8,0.7,1.3
  C49.5,25.3,49.2,25.8,48.8,26.1z M68,4.7C62.1,0.2,48.9,0,37,0S12,0.2,6.1,4.7C0.2,9.2,0,19,0,24.8s0.2,15.6,6.1,20.1
  c5.9,4.5,19,4.7,30.9,4.7s25-0.2,30.9-4.7c5.9-4.5,6.1-14.2,6.1-20.1S73.9,9.2,68,4.7z"/>
</svg>
